<?xml version="1.0" encoding="utf-8"?>
<!-- Generator: Adobe Illustrator 17.0.0, SVG Export Plug-In . SVG Version: 6.00 Build 0)  -->
<!DOCTYPE svg PUBLIC "-//W3C//DTD SVG 1.1//EN" "http://www.w3.org/Graphics/SVG/1.1/DTD/svg11.dtd">
<svg version="1.1" id="Capa_1" xmlns="http://www.w3.org/2000/svg" xmlns:xlink="http://www.w3.org/1999/xlink" x="0px" y="0px"
	 width="444.75px" height="444.87px" viewBox="0 0 444.75 444.87" enable-background="new 0 0 444.75 444.87" xml:space="preserve">
<polyline fill="none" stroke="#FFFFFF" stroke-width="0.75" stroke-linecap="round" stroke-linejoin="round" stroke-miterlimit="10" points="
	177.975,266.895 266.775,266.895 266.775,178.095 177.975,178.095 "/>
<line fill="none" stroke="#FFFFFF" stroke-width="0.75" stroke-linecap="round" stroke-linejoin="round" stroke-miterlimit="10" x1="266.775" y1="183.975" x2="177.975" y2="183.975"/>
<line fill="none" stroke="#FFFFFF" stroke-width="0.75" stroke-linecap="round" stroke-linejoin="round" stroke-miterlimit="10" x1="177.975" y1="178.095" x2="177.975" y2="266.895"/>
<polyline fill="none" stroke="#FFFFFF" stroke-width="0.75" stroke-linecap="round" stroke-linejoin="round" stroke-miterlimit="10" points="
	12.135,432.615 432.615,432.615 432.615,12.255 12.135,12.255 12.135,432.615 "/>
<polyline fill="none" stroke="#FFFFFF" stroke-width="0.75" stroke-linecap="round" stroke-linejoin="round" stroke-miterlimit="10" points="
	39.855,55.695 39.855,405.015 44.775,405.015 44.775,55.695 "/>
<line fill="none" stroke="#FFFFFF" stroke-width="0.75" stroke-linecap="round" stroke-linejoin="round" stroke-miterlimit="10" x1="56.415" y1="66.855" x2="56.415" y2="392.895"/>
<line fill="none" stroke="#FFFFFF" stroke-width="0.75" stroke-linecap="round" stroke-linejoin="round" stroke-miterlimit="10" x1="70.215" y1="83.895" x2="70.215" y2="374.655"/>
<line fill="none" stroke="#FFFFFF" stroke-width="0.75" stroke-linecap="round" stroke-linejoin="round" stroke-miterlimit="10" x1="74.055" y1="83.895" x2="74.055" y2="374.655"/>
<line fill="none" stroke="#FFFFFF" stroke-width="0.75" stroke-linecap="round" stroke-linejoin="round" stroke-miterlimit="10" x1="84.015" y1="93.495" x2="84.015" y2="364.215"/>
<line fill="none" stroke="#FFFFFF" stroke-width="0.75" stroke-linecap="round" stroke-linejoin="round" stroke-miterlimit="10" x1="74.055" y1="374.655" x2="70.215" y2="374.655"/>
<line fill="none" stroke="#FFFFFF" stroke-width="0.75" stroke-linecap="round" stroke-linejoin="round" stroke-miterlimit="10" x1="95.535" y1="107.415" x2="95.535" y2="349.335"/>
<line fill="none" stroke="#FFFFFF" stroke-width="0.75" stroke-linecap="round" stroke-linejoin="round" stroke-miterlimit="10" x1="98.415" y1="107.415" x2="98.415" y2="349.335"/>
<line fill="none" stroke="#FFFFFF" stroke-width="0.75" stroke-linecap="round" stroke-linejoin="round" stroke-miterlimit="10" x1="107.055" y1="115.575" x2="107.055" y2="340.455"/>
<line fill="none" stroke="#FFFFFF" stroke-width="0.75" stroke-linecap="round" stroke-linejoin="round" stroke-miterlimit="10" x1="98.415" y1="349.335" x2="95.535" y2="349.335"/>
<line fill="none" stroke="#FFFFFF" stroke-width="0.75" stroke-linecap="round" stroke-linejoin="round" stroke-miterlimit="10" x1="116.535" y1="126.975" x2="116.535" y2="328.335"/>
<line fill="none" stroke="#FFFFFF" stroke-width="0.75" stroke-linecap="round" stroke-linejoin="round" stroke-miterlimit="10" x1="118.695" y1="126.975" x2="118.695" y2="328.335"/>
<line fill="none" stroke="#FFFFFF" stroke-width="0.75" stroke-linecap="round" stroke-linejoin="round" stroke-miterlimit="10" x1="126.015" y1="133.935" x2="126.015" y2="320.655"/>
<line fill="none" stroke="#FFFFFF" stroke-width="0.75" stroke-linecap="round" stroke-linejoin="round" stroke-miterlimit="10" x1="118.695" y1="328.335" x2="116.535" y2="328.335"/>
<line fill="none" stroke="#FFFFFF" stroke-width="0.75" stroke-linecap="round" stroke-linejoin="round" stroke-miterlimit="10" x1="133.935" y1="143.055" x2="133.935" y2="310.815"/>
<line fill="none" stroke="#FFFFFF" stroke-width="0.75" stroke-linecap="round" stroke-linejoin="round" stroke-miterlimit="10" x1="135.495" y1="143.055" x2="135.495" y2="310.815"/>
<line fill="none" stroke="#FFFFFF" stroke-width="0.75" stroke-linecap="round" stroke-linejoin="round" stroke-miterlimit="10" x1="141.855" y1="149.175" x2="141.855" y2="304.335"/>
<line fill="none" stroke="#FFFFFF" stroke-width="0.75" stroke-linecap="round" stroke-linejoin="round" stroke-miterlimit="10" x1="135.495" y1="310.815" x2="133.935" y2="310.815"/>
<line fill="none" stroke="#FFFFFF" stroke-width="0.75" stroke-linecap="round" stroke-linejoin="round" stroke-miterlimit="10" x1="148.455" y1="156.495" x2="148.455" y2="296.415"/>
<line fill="none" stroke="#FFFFFF" stroke-width="0.75" stroke-linecap="round" stroke-linejoin="round" stroke-miterlimit="10" x1="149.535" y1="156.495" x2="149.535" y2="296.415"/>
<line fill="none" stroke="#FFFFFF" stroke-width="0.75" stroke-linecap="round" stroke-linejoin="round" stroke-miterlimit="10" x1="154.935" y1="161.895" x2="154.935" y2="290.655"/>
<line fill="none" stroke="#FFFFFF" stroke-width="0.75" stroke-linecap="round" stroke-linejoin="round" stroke-miterlimit="10" x1="149.535" y1="296.415" x2="148.455" y2="296.415"/>
<line fill="none" stroke="#FFFFFF" stroke-width="0.75" stroke-linecap="round" stroke-linejoin="round" stroke-miterlimit="10" x1="160.455" y1="167.655" x2="160.455" y2="284.415"/>
<line fill="none" stroke="#FFFFFF" stroke-width="0.75" stroke-linecap="round" stroke-linejoin="round" stroke-miterlimit="10" x1="161.055" y1="167.655" x2="161.055" y2="284.415"/>
<line fill="none" stroke="#FFFFFF" stroke-width="0.75" stroke-linecap="round" stroke-linejoin="round" stroke-miterlimit="10" x1="165.855" y1="172.335" x2="165.855" y2="279.375"/>
<line fill="none" stroke="#FFFFFF" stroke-width="0.75" stroke-linecap="round" stroke-linejoin="round" stroke-miterlimit="10" x1="161.055" y1="284.415" x2="160.455" y2="284.415"/>
<line fill="none" stroke="#FFFFFF" stroke-width="0.75" stroke-linecap="round" stroke-linejoin="round" stroke-miterlimit="10" x1="170.415" y1="176.895" x2="170.415" y2="274.455"/>
<line fill="none" stroke="#FFFFFF" stroke-width="0.75" stroke-linecap="round" stroke-linejoin="round" stroke-miterlimit="10" x1="170.655" y1="176.895" x2="170.655" y2="274.455"/>
<line fill="none" stroke="#FFFFFF" stroke-width="0.75" stroke-linecap="round" stroke-linejoin="round" stroke-miterlimit="10" x1="174.975" y1="181.095" x2="174.975" y2="270.015"/>
<line fill="none" stroke="#FFFFFF" stroke-width="0.75" stroke-linecap="round" stroke-linejoin="round" stroke-miterlimit="10" x1="170.655" y1="274.455" x2="170.415" y2="274.455"/>
<line fill="none" stroke="#FFFFFF" stroke-width="0.75" stroke-linecap="round" stroke-linejoin="round" stroke-miterlimit="10" x1="12.135" y1="432.615" x2="39.855" y2="405.015"/>
<line fill="none" stroke="#FFFFFF" stroke-width="0.75" stroke-linecap="round" stroke-linejoin="round" stroke-miterlimit="10" x1="56.415" y1="388.455" x2="70.215" y2="374.655"/>
<line fill="none" stroke="#FFFFFF" stroke-width="0.75" stroke-linecap="round" stroke-linejoin="round" stroke-miterlimit="10" x1="84.015" y1="360.735" x2="95.535" y2="349.335"/>
<line fill="none" stroke="#FFFFFF" stroke-width="0.75" stroke-linecap="round" stroke-linejoin="round" stroke-miterlimit="10" x1="107.055" y1="337.815" x2="116.535" y2="328.335"/>
<line fill="none" stroke="#FFFFFF" stroke-width="0.75" stroke-linecap="round" stroke-linejoin="round" stroke-miterlimit="10" x1="126.015" y1="318.735" x2="133.935" y2="310.815"/>
<line fill="none" stroke="#FFFFFF" stroke-width="0.75" stroke-linecap="round" stroke-linejoin="round" stroke-miterlimit="10" x1="141.855" y1="303.015" x2="148.455" y2="296.415"/>
<line fill="none" stroke="#FFFFFF" stroke-width="0.75" stroke-linecap="round" stroke-linejoin="round" stroke-miterlimit="10" x1="154.935" y1="289.815" x2="160.455" y2="284.415"/>
<line fill="none" stroke="#FFFFFF" stroke-width="0.75" stroke-linecap="round" stroke-linejoin="round" stroke-miterlimit="10" x1="165.855" y1="278.895" x2="170.415" y2="274.455"/>
<line fill="none" stroke="#FFFFFF" stroke-width="0.75" stroke-linecap="round" stroke-linejoin="round" stroke-miterlimit="10" x1="174.975" y1="269.895" x2="177.975" y2="266.895"/>
<line fill="none" stroke="#FFFFFF" stroke-width="0.75" stroke-linecap="round" stroke-linejoin="round" stroke-miterlimit="10" x1="44.775" y1="405.015" x2="56.415" y2="392.895"/>
<line fill="none" stroke="#FFFFFF" stroke-width="0.75" stroke-linecap="round" stroke-linejoin="round" stroke-miterlimit="10" x1="74.055" y1="374.655" x2="84.015" y2="364.215"/>
<line fill="none" stroke="#FFFFFF" stroke-width="0.75" stroke-linecap="round" stroke-linejoin="round" stroke-miterlimit="10" x1="98.415" y1="349.335" x2="107.055" y2="340.455"/>
<line fill="none" stroke="#FFFFFF" stroke-width="0.75" stroke-linecap="round" stroke-linejoin="round" stroke-miterlimit="10" x1="118.695" y1="328.335" x2="126.015" y2="320.655"/>
<line fill="none" stroke="#FFFFFF" stroke-width="0.75" stroke-linecap="round" stroke-linejoin="round" stroke-miterlimit="10" x1="135.495" y1="310.815" x2="141.855" y2="304.335"/>
<line fill="none" stroke="#FFFFFF" stroke-width="0.75" stroke-linecap="round" stroke-linejoin="round" stroke-miterlimit="10" x1="149.535" y1="296.415" x2="154.935" y2="290.655"/>
<line fill="none" stroke="#FFFFFF" stroke-width="0.75" stroke-linecap="round" stroke-linejoin="round" stroke-miterlimit="10" x1="161.055" y1="284.415" x2="165.855" y2="279.375"/>
<line fill="none" stroke="#FFFFFF" stroke-width="0.75" stroke-linecap="round" stroke-linejoin="round" stroke-miterlimit="10" x1="170.655" y1="274.455" x2="174.975" y2="270.015"/>
<line fill="none" stroke="#FFFFFF" stroke-width="0.75" stroke-linecap="round" stroke-linejoin="round" stroke-miterlimit="10" x1="177.975" y1="183.975" x2="177.975" y2="266.895"/>
<line fill="none" stroke="#FFFFFF" stroke-width="0.75" stroke-linecap="round" stroke-linejoin="round" stroke-miterlimit="10" x1="177.975" y1="178.095" x2="174.735" y2="174.735"/>
<line fill="none" stroke="#FFFFFF" stroke-width="0.75" stroke-linecap="round" stroke-linejoin="round" stroke-miterlimit="10" x1="169.815" y1="169.935" x2="165.015" y2="165.135"/>
<line fill="none" stroke="#FFFFFF" stroke-width="0.75" stroke-linecap="round" stroke-linejoin="round" stroke-miterlimit="10" x1="159.135" y1="159.255" x2="153.375" y2="153.375"/>
<line fill="none" stroke="#FFFFFF" stroke-width="0.75" stroke-linecap="round" stroke-linejoin="round" stroke-miterlimit="10" x1="146.295" y1="146.415" x2="139.335" y2="139.335"/>
<line fill="none" stroke="#FFFFFF" stroke-width="0.75" stroke-linecap="round" stroke-linejoin="round" stroke-miterlimit="10" x1="130.815" y1="130.935" x2="122.295" y2="122.415"/>
<line fill="none" stroke="#FFFFFF" stroke-width="0.75" stroke-linecap="round" stroke-linejoin="round" stroke-miterlimit="10" x1="112.095" y1="112.215" x2="101.895" y2="102.015"/>
<line fill="none" stroke="#FFFFFF" stroke-width="0.75" stroke-linecap="round" stroke-linejoin="round" stroke-miterlimit="10" x1="89.655" y1="89.775" x2="77.295" y2="77.415"/>
<line fill="none" stroke="#FFFFFF" stroke-width="0.75" stroke-linecap="round" stroke-linejoin="round" stroke-miterlimit="10" x1="62.535" y1="62.655" x2="47.655" y2="47.775"/>
<polyline fill="none" stroke="#FFFFFF" stroke-width="0.75" stroke-linecap="round" stroke-linejoin="round" stroke-miterlimit="10" points="
	29.895,30.015 12.135,12.255 12.135,30.015 39.855,55.695 "/>
<line fill="none" stroke="#FFFFFF" stroke-width="0.75" stroke-linecap="round" stroke-linejoin="round" stroke-miterlimit="10" x1="56.415" y1="71.055" x2="70.215" y2="83.895"/>
<line fill="none" stroke="#FFFFFF" stroke-width="0.75" stroke-linecap="round" stroke-linejoin="round" stroke-miterlimit="10" x1="84.015" y1="96.735" x2="95.535" y2="107.415"/>
<line fill="none" stroke="#FFFFFF" stroke-width="0.75" stroke-linecap="round" stroke-linejoin="round" stroke-miterlimit="10" x1="107.055" y1="118.095" x2="116.535" y2="126.975"/>
<line fill="none" stroke="#FFFFFF" stroke-width="0.75" stroke-linecap="round" stroke-linejoin="round" stroke-miterlimit="10" x1="126.015" y1="135.735" x2="133.935" y2="143.055"/>
<line fill="none" stroke="#FFFFFF" stroke-width="0.75" stroke-linecap="round" stroke-linejoin="round" stroke-miterlimit="10" x1="141.855" y1="150.495" x2="148.455" y2="156.495"/>
<line fill="none" stroke="#FFFFFF" stroke-width="0.75" stroke-linecap="round" stroke-linejoin="round" stroke-miterlimit="10" x1="154.935" y1="162.615" x2="160.455" y2="167.655"/>
<line fill="none" stroke="#FFFFFF" stroke-width="0.75" stroke-linecap="round" stroke-linejoin="round" stroke-miterlimit="10" x1="165.855" y1="172.695" x2="170.415" y2="176.895"/>
<line fill="none" stroke="#FFFFFF" stroke-width="0.75" stroke-linecap="round" stroke-linejoin="round" stroke-miterlimit="10" x1="39.855" y1="55.695" x2="44.775" y2="55.695"/>
<line fill="none" stroke="#FFFFFF" stroke-width="0.75" stroke-linecap="round" stroke-linejoin="round" stroke-miterlimit="10" x1="174.975" y1="181.095" x2="170.655" y2="176.895"/>
<line fill="none" stroke="#FFFFFF" stroke-width="0.75" stroke-linecap="round" stroke-linejoin="round" stroke-miterlimit="10" x1="165.855" y1="172.335" x2="161.055" y2="167.655"/>
<line fill="none" stroke="#FFFFFF" stroke-width="0.75" stroke-linecap="round" stroke-linejoin="round" stroke-miterlimit="10" x1="154.935" y1="161.895" x2="149.535" y2="156.495"/>
<line fill="none" stroke="#FFFFFF" stroke-width="0.75" stroke-linecap="round" stroke-linejoin="round" stroke-miterlimit="10" x1="141.855" y1="149.175" x2="135.495" y2="143.055"/>
<line fill="none" stroke="#FFFFFF" stroke-width="0.75" stroke-linecap="round" stroke-linejoin="round" stroke-miterlimit="10" x1="126.015" y1="133.935" x2="118.695" y2="126.975"/>
<line fill="none" stroke="#FFFFFF" stroke-width="0.75" stroke-linecap="round" stroke-linejoin="round" stroke-miterlimit="10" x1="107.055" y1="115.575" x2="98.415" y2="107.415"/>
<line fill="none" stroke="#FFFFFF" stroke-width="0.75" stroke-linecap="round" stroke-linejoin="round" stroke-miterlimit="10" x1="84.015" y1="93.495" x2="74.055" y2="83.895"/>
<line fill="none" stroke="#FFFFFF" stroke-width="0.75" stroke-linecap="round" stroke-linejoin="round" stroke-miterlimit="10" x1="56.415" y1="66.855" x2="44.775" y2="55.695"/>
<line fill="none" stroke="#FFFFFF" stroke-width="0.75" stroke-linecap="round" stroke-linejoin="round" stroke-miterlimit="10" x1="70.215" y1="83.895" x2="74.055" y2="83.895"/>
<line fill="none" stroke="#FFFFFF" stroke-width="0.75" stroke-linecap="round" stroke-linejoin="round" stroke-miterlimit="10" x1="95.535" y1="107.415" x2="98.415" y2="107.415"/>
<line fill="none" stroke="#FFFFFF" stroke-width="0.75" stroke-linecap="round" stroke-linejoin="round" stroke-miterlimit="10" x1="116.535" y1="126.975" x2="118.695" y2="126.975"/>
<line fill="none" stroke="#FFFFFF" stroke-width="0.75" stroke-linecap="round" stroke-linejoin="round" stroke-miterlimit="10" x1="133.935" y1="143.055" x2="135.495" y2="143.055"/>
<line fill="none" stroke="#FFFFFF" stroke-width="0.75" stroke-linecap="round" stroke-linejoin="round" stroke-miterlimit="10" x1="148.455" y1="156.495" x2="149.535" y2="156.495"/>
<line fill="none" stroke="#FFFFFF" stroke-width="0.75" stroke-linecap="round" stroke-linejoin="round" stroke-miterlimit="10" x1="160.455" y1="167.655" x2="161.055" y2="167.655"/>
<line fill="none" stroke="#FFFFFF" stroke-width="0.75" stroke-linecap="round" stroke-linejoin="round" stroke-miterlimit="10" x1="170.415" y1="176.895" x2="170.655" y2="176.895"/>
<line fill="none" stroke="#FFFFFF" stroke-width="0.75" stroke-linecap="round" stroke-linejoin="round" stroke-miterlimit="10" x1="266.775" y1="178.095" x2="266.775" y2="266.895"/>
<polyline fill="none" stroke="#FFFFFF" stroke-width="0.75" stroke-linecap="round" stroke-linejoin="round" stroke-miterlimit="10" points="
	405.015,55.695 405.015,405.015 399.975,405.015 399.975,55.695 "/>
<line fill="none" stroke="#FFFFFF" stroke-width="0.75" stroke-linecap="round" stroke-linejoin="round" stroke-miterlimit="10" x1="388.335" y1="66.855" x2="388.335" y2="392.895"/>
<line fill="none" stroke="#FFFFFF" stroke-width="0.75" stroke-linecap="round" stroke-linejoin="round" stroke-miterlimit="10" x1="374.535" y1="83.895" x2="374.535" y2="374.655"/>
<line fill="none" stroke="#FFFFFF" stroke-width="0.75" stroke-linecap="round" stroke-linejoin="round" stroke-miterlimit="10" x1="370.695" y1="83.895" x2="370.695" y2="374.655"/>
<line fill="none" stroke="#FFFFFF" stroke-width="0.75" stroke-linecap="round" stroke-linejoin="round" stroke-miterlimit="10" x1="360.735" y1="93.495" x2="360.735" y2="364.215"/>
<line fill="none" stroke="#FFFFFF" stroke-width="0.75" stroke-linecap="round" stroke-linejoin="round" stroke-miterlimit="10" x1="370.695" y1="374.655" x2="374.535" y2="374.655"/>
<line fill="none" stroke="#FFFFFF" stroke-width="0.75" stroke-linecap="round" stroke-linejoin="round" stroke-miterlimit="10" x1="349.215" y1="107.415" x2="349.215" y2="349.335"/>
<line fill="none" stroke="#FFFFFF" stroke-width="0.75" stroke-linecap="round" stroke-linejoin="round" stroke-miterlimit="10" x1="346.335" y1="107.415" x2="346.335" y2="349.335"/>
<line fill="none" stroke="#FFFFFF" stroke-width="0.75" stroke-linecap="round" stroke-linejoin="round" stroke-miterlimit="10" x1="337.815" y1="115.575" x2="337.815" y2="340.455"/>
<line fill="none" stroke="#FFFFFF" stroke-width="0.75" stroke-linecap="round" stroke-linejoin="round" stroke-miterlimit="10" x1="346.335" y1="349.335" x2="349.215" y2="349.335"/>
<line fill="none" stroke="#FFFFFF" stroke-width="0.75" stroke-linecap="round" stroke-linejoin="round" stroke-miterlimit="10" x1="328.215" y1="126.975" x2="328.215" y2="328.335"/>
<line fill="none" stroke="#FFFFFF" stroke-width="0.75" stroke-linecap="round" stroke-linejoin="round" stroke-miterlimit="10" x1="326.055" y1="126.975" x2="326.055" y2="328.335"/>
<line fill="none" stroke="#FFFFFF" stroke-width="0.75" stroke-linecap="round" stroke-linejoin="round" stroke-miterlimit="10" x1="318.735" y1="133.935" x2="318.735" y2="320.655"/>
<line fill="none" stroke="#FFFFFF" stroke-width="0.75" stroke-linecap="round" stroke-linejoin="round" stroke-miterlimit="10" x1="326.055" y1="328.335" x2="328.215" y2="328.335"/>
<line fill="none" stroke="#FFFFFF" stroke-width="0.75" stroke-linecap="round" stroke-linejoin="round" stroke-miterlimit="10" x1="310.815" y1="143.055" x2="310.815" y2="310.815"/>
<line fill="none" stroke="#FFFFFF" stroke-width="0.75" stroke-linecap="round" stroke-linejoin="round" stroke-miterlimit="10" x1="309.255" y1="143.055" x2="309.255" y2="310.815"/>
<line fill="none" stroke="#FFFFFF" stroke-width="0.75" stroke-linecap="round" stroke-linejoin="round" stroke-miterlimit="10" x1="302.895" y1="149.175" x2="302.895" y2="304.335"/>
<line fill="none" stroke="#FFFFFF" stroke-width="0.75" stroke-linecap="round" stroke-linejoin="round" stroke-miterlimit="10" x1="309.255" y1="310.815" x2="310.815" y2="310.815"/>
<line fill="none" stroke="#FFFFFF" stroke-width="0.75" stroke-linecap="round" stroke-linejoin="round" stroke-miterlimit="10" x1="296.295" y1="156.495" x2="296.295" y2="296.415"/>
<line fill="none" stroke="#FFFFFF" stroke-width="0.75" stroke-linecap="round" stroke-linejoin="round" stroke-miterlimit="10" x1="295.335" y1="156.495" x2="295.335" y2="296.415"/>
<line fill="none" stroke="#FFFFFF" stroke-width="0.75" stroke-linecap="round" stroke-linejoin="round" stroke-miterlimit="10" x1="289.815" y1="161.895" x2="289.815" y2="290.655"/>
<line fill="none" stroke="#FFFFFF" stroke-width="0.75" stroke-linecap="round" stroke-linejoin="round" stroke-miterlimit="10" x1="295.335" y1="296.415" x2="296.295" y2="296.415"/>
<line fill="none" stroke="#FFFFFF" stroke-width="0.75" stroke-linecap="round" stroke-linejoin="round" stroke-miterlimit="10" x1="284.295" y1="167.655" x2="284.295" y2="284.415"/>
<line fill="none" stroke="#FFFFFF" stroke-width="0.75" stroke-linecap="round" stroke-linejoin="round" stroke-miterlimit="10" x1="283.695" y1="167.655" x2="283.695" y2="284.415"/>
<line fill="none" stroke="#FFFFFF" stroke-width="0.75" stroke-linecap="round" stroke-linejoin="round" stroke-miterlimit="10" x1="278.895" y1="172.335" x2="278.895" y2="279.375"/>
<line fill="none" stroke="#FFFFFF" stroke-width="0.75" stroke-linecap="round" stroke-linejoin="round" stroke-miterlimit="10" x1="283.695" y1="284.415" x2="284.295" y2="284.415"/>
<line fill="none" stroke="#FFFFFF" stroke-width="0.75" stroke-linecap="round" stroke-linejoin="round" stroke-miterlimit="10" x1="274.335" y1="176.895" x2="274.335" y2="274.455"/>
<line fill="none" stroke="#FFFFFF" stroke-width="0.75" stroke-linecap="round" stroke-linejoin="round" stroke-miterlimit="10" x1="274.095" y1="176.895" x2="274.095" y2="274.455"/>
<line fill="none" stroke="#FFFFFF" stroke-width="0.75" stroke-linecap="round" stroke-linejoin="round" stroke-miterlimit="10" x1="269.895" y1="181.095" x2="269.895" y2="270.015"/>
<line fill="none" stroke="#FFFFFF" stroke-width="0.75" stroke-linecap="round" stroke-linejoin="round" stroke-miterlimit="10" x1="274.095" y1="274.455" x2="274.335" y2="274.455"/>
<line fill="none" stroke="#FFFFFF" stroke-width="0.75" stroke-linecap="round" stroke-linejoin="round" stroke-miterlimit="10" x1="432.615" y1="432.615" x2="405.015" y2="405.015"/>
<line fill="none" stroke="#FFFFFF" stroke-width="0.75" stroke-linecap="round" stroke-linejoin="round" stroke-miterlimit="10" x1="388.335" y1="388.455" x2="374.535" y2="374.655"/>
<line fill="none" stroke="#FFFFFF" stroke-width="0.75" stroke-linecap="round" stroke-linejoin="round" stroke-miterlimit="10" x1="360.735" y1="360.735" x2="349.215" y2="349.335"/>
<line fill="none" stroke="#FFFFFF" stroke-width="0.75" stroke-linecap="round" stroke-linejoin="round" stroke-miterlimit="10" x1="337.815" y1="337.815" x2="328.215" y2="328.335"/>
<line fill="none" stroke="#FFFFFF" stroke-width="0.75" stroke-linecap="round" stroke-linejoin="round" stroke-miterlimit="10" x1="318.735" y1="318.735" x2="310.815" y2="310.815"/>
<line fill="none" stroke="#FFFFFF" stroke-width="0.75" stroke-linecap="round" stroke-linejoin="round" stroke-miterlimit="10" x1="302.895" y1="303.015" x2="296.295" y2="296.415"/>
<line fill="none" stroke="#FFFFFF" stroke-width="0.75" stroke-linecap="round" stroke-linejoin="round" stroke-miterlimit="10" x1="289.815" y1="289.815" x2="284.295" y2="284.415"/>
<line fill="none" stroke="#FFFFFF" stroke-width="0.75" stroke-linecap="round" stroke-linejoin="round" stroke-miterlimit="10" x1="278.895" y1="278.895" x2="274.335" y2="274.455"/>
<line fill="none" stroke="#FFFFFF" stroke-width="0.75" stroke-linecap="round" stroke-linejoin="round" stroke-miterlimit="10" x1="269.895" y1="269.895" x2="266.775" y2="266.895"/>
<line fill="none" stroke="#FFFFFF" stroke-width="0.75" stroke-linecap="round" stroke-linejoin="round" stroke-miterlimit="10" x1="399.975" y1="405.015" x2="388.335" y2="392.895"/>
<line fill="none" stroke="#FFFFFF" stroke-width="0.75" stroke-linecap="round" stroke-linejoin="round" stroke-miterlimit="10" x1="370.695" y1="374.655" x2="360.735" y2="364.215"/>
<line fill="none" stroke="#FFFFFF" stroke-width="0.75" stroke-linecap="round" stroke-linejoin="round" stroke-miterlimit="10" x1="346.335" y1="349.335" x2="337.815" y2="340.455"/>
<line fill="none" stroke="#FFFFFF" stroke-width="0.75" stroke-linecap="round" stroke-linejoin="round" stroke-miterlimit="10" x1="326.055" y1="328.335" x2="318.735" y2="320.655"/>
<line fill="none" stroke="#FFFFFF" stroke-width="0.75" stroke-linecap="round" stroke-linejoin="round" stroke-miterlimit="10" x1="309.255" y1="310.815" x2="302.895" y2="304.335"/>
<line fill="none" stroke="#FFFFFF" stroke-width="0.75" stroke-linecap="round" stroke-linejoin="round" stroke-miterlimit="10" x1="295.335" y1="296.415" x2="289.815" y2="290.655"/>
<line fill="none" stroke="#FFFFFF" stroke-width="0.75" stroke-linecap="round" stroke-linejoin="round" stroke-miterlimit="10" x1="283.695" y1="284.415" x2="278.895" y2="279.375"/>
<line fill="none" stroke="#FFFFFF" stroke-width="0.75" stroke-linecap="round" stroke-linejoin="round" stroke-miterlimit="10" x1="274.095" y1="274.455" x2="269.895" y2="270.015"/>
<line fill="none" stroke="#FFFFFF" stroke-width="0.75" stroke-linecap="round" stroke-linejoin="round" stroke-miterlimit="10" x1="266.775" y1="183.975" x2="266.775" y2="266.895"/>
<line fill="none" stroke="#FFFFFF" stroke-width="0.75" stroke-linecap="round" stroke-linejoin="round" stroke-miterlimit="10" x1="274.935" y1="169.935" x2="279.735" y2="165.135"/>
<line fill="none" stroke="#FFFFFF" stroke-width="0.75" stroke-linecap="round" stroke-linejoin="round" stroke-miterlimit="10" x1="285.615" y1="159.255" x2="291.375" y2="153.375"/>
<line fill="none" stroke="#FFFFFF" stroke-width="0.75" stroke-linecap="round" stroke-linejoin="round" stroke-miterlimit="10" x1="298.455" y1="146.415" x2="305.535" y2="139.335"/>
<line fill="none" stroke="#FFFFFF" stroke-width="0.75" stroke-linecap="round" stroke-linejoin="round" stroke-miterlimit="10" x1="313.935" y1="130.935" x2="322.455" y2="122.415"/>
<line fill="none" stroke="#FFFFFF" stroke-width="0.75" stroke-linecap="round" stroke-linejoin="round" stroke-miterlimit="10" x1="332.655" y1="112.215" x2="342.855" y2="102.015"/>
<line fill="none" stroke="#FFFFFF" stroke-width="0.75" stroke-linecap="round" stroke-linejoin="round" stroke-miterlimit="10" x1="355.095" y1="89.775" x2="367.455" y2="77.415"/>
<line fill="none" stroke="#FFFFFF" stroke-width="0.75" stroke-linecap="round" stroke-linejoin="round" stroke-miterlimit="10" x1="382.215" y1="62.655" x2="397.095" y2="47.775"/>
<polyline fill="none" stroke="#FFFFFF" stroke-width="0.75" stroke-linecap="round" stroke-linejoin="round" stroke-miterlimit="10" points="
	414.855,30.015 432.615,12.255 432.615,30.015 405.015,55.695 "/>
<line fill="none" stroke="#FFFFFF" stroke-width="0.75" stroke-linecap="round" stroke-linejoin="round" stroke-miterlimit="10" x1="388.335" y1="71.055" x2="374.535" y2="83.895"/>
<line fill="none" stroke="#FFFFFF" stroke-width="0.75" stroke-linecap="round" stroke-linejoin="round" stroke-miterlimit="10" x1="360.735" y1="96.735" x2="349.215" y2="107.415"/>
<line fill="none" stroke="#FFFFFF" stroke-width="0.75" stroke-linecap="round" stroke-linejoin="round" stroke-miterlimit="10" x1="337.815" y1="118.095" x2="328.215" y2="126.975"/>
<line fill="none" stroke="#FFFFFF" stroke-width="0.75" stroke-linecap="round" stroke-linejoin="round" stroke-miterlimit="10" x1="318.735" y1="135.735" x2="310.815" y2="143.055"/>
<line fill="none" stroke="#FFFFFF" stroke-width="0.75" stroke-linecap="round" stroke-linejoin="round" stroke-miterlimit="10" x1="302.895" y1="150.495" x2="296.295" y2="156.495"/>
<line fill="none" stroke="#FFFFFF" stroke-width="0.75" stroke-linecap="round" stroke-linejoin="round" stroke-miterlimit="10" x1="289.815" y1="162.615" x2="284.295" y2="167.655"/>
<line fill="none" stroke="#FFFFFF" stroke-width="0.75" stroke-linecap="round" stroke-linejoin="round" stroke-miterlimit="10" x1="278.895" y1="172.695" x2="274.335" y2="176.895"/>
<line fill="none" stroke="#FFFFFF" stroke-width="0.75" stroke-linecap="round" stroke-linejoin="round" stroke-miterlimit="10" x1="405.015" y1="55.695" x2="399.975" y2="55.695"/>
<line fill="none" stroke="#FFFFFF" stroke-width="0.75" stroke-linecap="round" stroke-linejoin="round" stroke-miterlimit="10" x1="269.895" y1="181.095" x2="274.095" y2="176.895"/>
<line fill="none" stroke="#FFFFFF" stroke-width="0.75" stroke-linecap="round" stroke-linejoin="round" stroke-miterlimit="10" x1="278.895" y1="172.335" x2="283.695" y2="167.655"/>
<line fill="none" stroke="#FFFFFF" stroke-width="0.75" stroke-linecap="round" stroke-linejoin="round" stroke-miterlimit="10" x1="289.815" y1="161.895" x2="295.335" y2="156.495"/>
<line fill="none" stroke="#FFFFFF" stroke-width="0.75" stroke-linecap="round" stroke-linejoin="round" stroke-miterlimit="10" x1="302.895" y1="149.175" x2="309.255" y2="143.055"/>
<line fill="none" stroke="#FFFFFF" stroke-width="0.75" stroke-linecap="round" stroke-linejoin="round" stroke-miterlimit="10" x1="318.735" y1="133.935" x2="326.055" y2="126.975"/>
<line fill="none" stroke="#FFFFFF" stroke-width="0.75" stroke-linecap="round" stroke-linejoin="round" stroke-miterlimit="10" x1="337.815" y1="115.575" x2="346.335" y2="107.415"/>
<line fill="none" stroke="#FFFFFF" stroke-width="0.75" stroke-linecap="round" stroke-linejoin="round" stroke-miterlimit="10" x1="360.735" y1="93.495" x2="370.695" y2="83.895"/>
<line fill="none" stroke="#FFFFFF" stroke-width="0.75" stroke-linecap="round" stroke-linejoin="round" stroke-miterlimit="10" x1="388.335" y1="66.855" x2="399.975" y2="55.695"/>
<line fill="none" stroke="#FFFFFF" stroke-width="0.75" stroke-linecap="round" stroke-linejoin="round" stroke-miterlimit="10" x1="374.535" y1="83.895" x2="370.695" y2="83.895"/>
<line fill="none" stroke="#FFFFFF" stroke-width="0.75" stroke-linecap="round" stroke-linejoin="round" stroke-miterlimit="10" x1="349.215" y1="107.415" x2="346.335" y2="107.415"/>
<line fill="none" stroke="#FFFFFF" stroke-width="0.75" stroke-linecap="round" stroke-linejoin="round" stroke-miterlimit="10" x1="328.215" y1="126.975" x2="326.055" y2="126.975"/>
<line fill="none" stroke="#FFFFFF" stroke-width="0.75" stroke-linecap="round" stroke-linejoin="round" stroke-miterlimit="10" x1="310.815" y1="143.055" x2="309.255" y2="143.055"/>
<line fill="none" stroke="#FFFFFF" stroke-width="0.75" stroke-linecap="round" stroke-linejoin="round" stroke-miterlimit="10" x1="296.295" y1="156.495" x2="295.335" y2="156.495"/>
<line fill="none" stroke="#FFFFFF" stroke-width="0.75" stroke-linecap="round" stroke-linejoin="round" stroke-miterlimit="10" x1="284.295" y1="167.655" x2="283.695" y2="167.655"/>
<line fill="none" stroke="#FFFFFF" stroke-width="0.75" stroke-linecap="round" stroke-linejoin="round" stroke-miterlimit="10" x1="274.335" y1="176.895" x2="274.095" y2="176.895"/>
<line fill="none" stroke="#FFFFFF" stroke-width="0.75" stroke-linecap="round" stroke-linejoin="round" stroke-miterlimit="10" x1="177.975" y1="183.975" x2="174.975" y2="181.095"/>
<line fill="none" stroke="#FFFFFF" stroke-width="0.75" stroke-linecap="round" stroke-linejoin="round" stroke-miterlimit="10" x1="269.895" y1="181.095" x2="266.775" y2="183.975"/>
<polyline fill="none" stroke="#FFFFFF" stroke-width="0.75" stroke-linecap="round" stroke-linejoin="round" stroke-miterlimit="10" points="
	177.975,178.095 183.855,178.095 183.855,183.975 177.975,183.975 177.975,178.095 "/>
<polyline fill="none" stroke="#FFFFFF" stroke-width="0.75" stroke-linecap="round" stroke-linejoin="round" stroke-miterlimit="10" points="
	260.895,178.095 266.775,178.095 266.775,183.975 260.895,183.975 260.895,178.095 "/>
<line fill="none" stroke="#FFFFFF" stroke-width="0.75" stroke-linecap="round" stroke-linejoin="round" stroke-miterlimit="10" x1="183.855" y1="183.975" x2="183.855" y2="266.895"/>
<line fill="none" stroke="#FFFFFF" stroke-width="0.75" stroke-linecap="round" stroke-linejoin="round" stroke-miterlimit="10" x1="260.895" y1="183.975" x2="260.895" y2="266.895"/>
<polyline fill="none" stroke="#FFFFFF" stroke-width="0.75" stroke-linecap="round" stroke-linejoin="round" stroke-miterlimit="10" points="
	414.855,30.015 29.895,30.015 29.895,35.295 "/>
<polyline fill="none" stroke="#FFFFFF" stroke-width="0.75" stroke-linecap="round" stroke-linejoin="round" stroke-miterlimit="10" points="
	414.855,30.015 414.855,35.295 29.895,35.295 "/>
<line fill="none" stroke="#FFFFFF" stroke-width="0.75" stroke-linecap="round" stroke-linejoin="round" stroke-miterlimit="10" x1="401.895" y1="47.775" x2="42.855" y2="47.775"/>
<polyline fill="none" stroke="#FFFFFF" stroke-width="0.75" stroke-linecap="round" stroke-linejoin="round" stroke-miterlimit="10" points="
	397.095,47.775 382.215,62.655 62.535,62.655 "/>
<line fill="none" stroke="#FFFFFF" stroke-width="0.75" stroke-linecap="round" stroke-linejoin="round" stroke-miterlimit="10" x1="382.215" y1="66.735" x2="62.535" y2="66.735"/>
<line fill="none" stroke="#FFFFFF" stroke-width="0.75" stroke-linecap="round" stroke-linejoin="round" stroke-miterlimit="10" x1="371.175" y1="77.415" x2="73.575" y2="77.415"/>
<line fill="none" stroke="#FFFFFF" stroke-width="0.75" stroke-linecap="round" stroke-linejoin="round" stroke-miterlimit="10" x1="62.535" y1="66.735" x2="62.535" y2="62.655"/>
<line fill="none" stroke="#FFFFFF" stroke-width="0.75" stroke-linecap="round" stroke-linejoin="round" stroke-miterlimit="10" x1="382.215" y1="66.735" x2="382.215" y2="62.655"/>
<polyline fill="none" stroke="#FFFFFF" stroke-width="0.75" stroke-linecap="round" stroke-linejoin="round" stroke-miterlimit="10" points="
	367.455,77.415 355.095,89.775 89.655,89.775 "/>
<line fill="none" stroke="#FFFFFF" stroke-width="0.75" stroke-linecap="round" stroke-linejoin="round" stroke-miterlimit="10" x1="355.095" y1="92.895" x2="89.655" y2="92.895"/>
<line fill="none" stroke="#FFFFFF" stroke-width="0.75" stroke-linecap="round" stroke-linejoin="round" stroke-miterlimit="10" x1="345.615" y1="102.015" x2="99.135" y2="102.015"/>
<line fill="none" stroke="#FFFFFF" stroke-width="0.75" stroke-linecap="round" stroke-linejoin="round" stroke-miterlimit="10" x1="89.655" y1="92.895" x2="89.655" y2="89.775"/>
<line fill="none" stroke="#FFFFFF" stroke-width="0.75" stroke-linecap="round" stroke-linejoin="round" stroke-miterlimit="10" x1="355.095" y1="92.895" x2="355.095" y2="89.775"/>
<polyline fill="none" stroke="#FFFFFF" stroke-width="0.75" stroke-linecap="round" stroke-linejoin="round" stroke-miterlimit="10" points="
	342.855,102.015 332.655,112.215 112.095,112.215 "/>
<line fill="none" stroke="#FFFFFF" stroke-width="0.75" stroke-linecap="round" stroke-linejoin="round" stroke-miterlimit="10" x1="332.655" y1="114.615" x2="112.095" y2="114.615"/>
<line fill="none" stroke="#FFFFFF" stroke-width="0.75" stroke-linecap="round" stroke-linejoin="round" stroke-miterlimit="10" x1="324.495" y1="122.415" x2="120.255" y2="122.415"/>
<line fill="none" stroke="#FFFFFF" stroke-width="0.75" stroke-linecap="round" stroke-linejoin="round" stroke-miterlimit="10" x1="112.095" y1="114.615" x2="112.095" y2="112.215"/>
<line fill="none" stroke="#FFFFFF" stroke-width="0.75" stroke-linecap="round" stroke-linejoin="round" stroke-miterlimit="10" x1="332.655" y1="114.615" x2="332.655" y2="112.215"/>
<polyline fill="none" stroke="#FFFFFF" stroke-width="0.75" stroke-linecap="round" stroke-linejoin="round" stroke-miterlimit="10" points="
	322.455,122.415 313.935,130.935 130.815,130.935 "/>
<line fill="none" stroke="#FFFFFF" stroke-width="0.75" stroke-linecap="round" stroke-linejoin="round" stroke-miterlimit="10" x1="313.935" y1="132.615" x2="130.815" y2="132.615"/>
<line fill="none" stroke="#FFFFFF" stroke-width="0.75" stroke-linecap="round" stroke-linejoin="round" stroke-miterlimit="10" x1="306.855" y1="139.335" x2="137.895" y2="139.335"/>
<line fill="none" stroke="#FFFFFF" stroke-width="0.75" stroke-linecap="round" stroke-linejoin="round" stroke-miterlimit="10" x1="130.815" y1="132.615" x2="130.815" y2="130.935"/>
<line fill="none" stroke="#FFFFFF" stroke-width="0.75" stroke-linecap="round" stroke-linejoin="round" stroke-miterlimit="10" x1="313.935" y1="132.615" x2="313.935" y2="130.935"/>
<polyline fill="none" stroke="#FFFFFF" stroke-width="0.75" stroke-linecap="round" stroke-linejoin="round" stroke-miterlimit="10" points="
	305.535,139.335 298.455,146.415 146.295,146.415 "/>
<line fill="none" stroke="#FFFFFF" stroke-width="0.75" stroke-linecap="round" stroke-linejoin="round" stroke-miterlimit="10" x1="298.455" y1="147.495" x2="146.295" y2="147.495"/>
<line fill="none" stroke="#FFFFFF" stroke-width="0.75" stroke-linecap="round" stroke-linejoin="round" stroke-miterlimit="10" x1="292.335" y1="153.375" x2="152.415" y2="153.375"/>
<line fill="none" stroke="#FFFFFF" stroke-width="0.75" stroke-linecap="round" stroke-linejoin="round" stroke-miterlimit="10" x1="146.295" y1="147.495" x2="146.295" y2="146.415"/>
<line fill="none" stroke="#FFFFFF" stroke-width="0.75" stroke-linecap="round" stroke-linejoin="round" stroke-miterlimit="10" x1="298.455" y1="147.495" x2="298.455" y2="146.415"/>
<polyline fill="none" stroke="#FFFFFF" stroke-width="0.75" stroke-linecap="round" stroke-linejoin="round" stroke-miterlimit="10" points="
	291.375,153.375 285.615,159.255 159.135,159.255 "/>
<line fill="none" stroke="#FFFFFF" stroke-width="0.75" stroke-linecap="round" stroke-linejoin="round" stroke-miterlimit="10" x1="285.615" y1="159.975" x2="159.135" y2="159.975"/>
<line fill="none" stroke="#FFFFFF" stroke-width="0.75" stroke-linecap="round" stroke-linejoin="round" stroke-miterlimit="10" x1="280.215" y1="165.135" x2="164.535" y2="165.135"/>
<line fill="none" stroke="#FFFFFF" stroke-width="0.75" stroke-linecap="round" stroke-linejoin="round" stroke-miterlimit="10" x1="159.135" y1="159.975" x2="159.135" y2="159.255"/>
<line fill="none" stroke="#FFFFFF" stroke-width="0.75" stroke-linecap="round" stroke-linejoin="round" stroke-miterlimit="10" x1="285.615" y1="159.975" x2="285.615" y2="159.255"/>
<polyline fill="none" stroke="#FFFFFF" stroke-width="0.75" stroke-linecap="round" stroke-linejoin="round" stroke-miterlimit="10" points="
	279.735,165.135 274.935,169.935 169.815,169.935 "/>
<line fill="none" stroke="#FFFFFF" stroke-width="0.75" stroke-linecap="round" stroke-linejoin="round" stroke-miterlimit="10" x1="274.935" y1="170.175" x2="169.815" y2="170.175"/>
<line fill="none" stroke="#FFFFFF" stroke-width="0.75" stroke-linecap="round" stroke-linejoin="round" stroke-miterlimit="10" x1="270.135" y1="174.735" x2="174.615" y2="174.735"/>
<line fill="none" stroke="#FFFFFF" stroke-width="0.75" stroke-linecap="round" stroke-linejoin="round" stroke-miterlimit="10" x1="169.815" y1="170.175" x2="169.815" y2="169.935"/>
<line fill="none" stroke="#FFFFFF" stroke-width="0.75" stroke-linecap="round" stroke-linejoin="round" stroke-miterlimit="10" x1="274.935" y1="170.175" x2="274.935" y2="169.935"/>
<line fill="none" stroke="#FFFFFF" stroke-width="0.75" stroke-linecap="round" stroke-linejoin="round" stroke-miterlimit="10" x1="432.615" y1="12.255" x2="414.855" y2="30.015"/>
<line fill="none" stroke="#FFFFFF" stroke-width="0.75" stroke-linecap="round" stroke-linejoin="round" stroke-miterlimit="10" x1="12.135" y1="12.255" x2="29.895" y2="30.015"/>
<line fill="none" stroke="#FFFFFF" stroke-width="0.75" stroke-linecap="round" stroke-linejoin="round" stroke-miterlimit="10" x1="47.655" y1="47.775" x2="62.535" y2="62.655"/>
<line fill="none" stroke="#FFFFFF" stroke-width="0.75" stroke-linecap="round" stroke-linejoin="round" stroke-miterlimit="10" x1="77.295" y1="77.415" x2="89.655" y2="89.775"/>
<line fill="none" stroke="#FFFFFF" stroke-width="0.75" stroke-linecap="round" stroke-linejoin="round" stroke-miterlimit="10" x1="101.895" y1="102.015" x2="112.095" y2="112.215"/>
<line fill="none" stroke="#FFFFFF" stroke-width="0.75" stroke-linecap="round" stroke-linejoin="round" stroke-miterlimit="10" x1="122.295" y1="122.415" x2="130.815" y2="130.935"/>
<line fill="none" stroke="#FFFFFF" stroke-width="0.75" stroke-linecap="round" stroke-linejoin="round" stroke-miterlimit="10" x1="139.335" y1="139.335" x2="146.295" y2="146.415"/>
<line fill="none" stroke="#FFFFFF" stroke-width="0.75" stroke-linecap="round" stroke-linejoin="round" stroke-miterlimit="10" x1="153.375" y1="153.375" x2="159.135" y2="159.255"/>
<line fill="none" stroke="#FFFFFF" stroke-width="0.75" stroke-linecap="round" stroke-linejoin="round" stroke-miterlimit="10" x1="165.015" y1="165.135" x2="169.815" y2="169.935"/>
<line fill="none" stroke="#FFFFFF" stroke-width="0.75" stroke-linecap="round" stroke-linejoin="round" stroke-miterlimit="10" x1="174.735" y1="174.735" x2="177.975" y2="178.095"/>
<line fill="none" stroke="#FFFFFF" stroke-width="0.75" stroke-linecap="round" stroke-linejoin="round" stroke-miterlimit="10" x1="414.855" y1="35.295" x2="401.895" y2="47.775"/>
<line fill="none" stroke="#FFFFFF" stroke-width="0.75" stroke-linecap="round" stroke-linejoin="round" stroke-miterlimit="10" x1="382.215" y1="66.735" x2="371.175" y2="77.415"/>
<line fill="none" stroke="#FFFFFF" stroke-width="0.75" stroke-linecap="round" stroke-linejoin="round" stroke-miterlimit="10" x1="355.095" y1="92.895" x2="345.615" y2="102.015"/>
<line fill="none" stroke="#FFFFFF" stroke-width="0.75" stroke-linecap="round" stroke-linejoin="round" stroke-miterlimit="10" x1="332.655" y1="114.615" x2="324.495" y2="122.415"/>
<line fill="none" stroke="#FFFFFF" stroke-width="0.75" stroke-linecap="round" stroke-linejoin="round" stroke-miterlimit="10" x1="313.935" y1="132.615" x2="306.855" y2="139.335"/>
<line fill="none" stroke="#FFFFFF" stroke-width="0.75" stroke-linecap="round" stroke-linejoin="round" stroke-miterlimit="10" x1="298.455" y1="147.495" x2="292.335" y2="153.375"/>
<line fill="none" stroke="#FFFFFF" stroke-width="0.75" stroke-linecap="round" stroke-linejoin="round" stroke-miterlimit="10" x1="285.615" y1="159.975" x2="280.215" y2="165.135"/>
<line fill="none" stroke="#FFFFFF" stroke-width="0.75" stroke-linecap="round" stroke-linejoin="round" stroke-miterlimit="10" x1="274.935" y1="170.175" x2="266.775" y2="178.095"/>
<line fill="none" stroke="#FFFFFF" stroke-width="0.75" stroke-linecap="round" stroke-linejoin="round" stroke-miterlimit="10" x1="29.895" y1="35.295" x2="42.855" y2="47.775"/>
<line fill="none" stroke="#FFFFFF" stroke-width="0.75" stroke-linecap="round" stroke-linejoin="round" stroke-miterlimit="10" x1="62.535" y1="66.735" x2="73.575" y2="77.415"/>
<line fill="none" stroke="#FFFFFF" stroke-width="0.75" stroke-linecap="round" stroke-linejoin="round" stroke-miterlimit="10" x1="89.655" y1="92.895" x2="99.135" y2="102.015"/>
<line fill="none" stroke="#FFFFFF" stroke-width="0.75" stroke-linecap="round" stroke-linejoin="round" stroke-miterlimit="10" x1="112.095" y1="114.615" x2="120.255" y2="122.415"/>
<line fill="none" stroke="#FFFFFF" stroke-width="0.75" stroke-linecap="round" stroke-linejoin="round" stroke-miterlimit="10" x1="130.815" y1="132.615" x2="137.895" y2="139.335"/>
<line fill="none" stroke="#FFFFFF" stroke-width="0.75" stroke-linecap="round" stroke-linejoin="round" stroke-miterlimit="10" x1="146.295" y1="147.495" x2="152.415" y2="153.375"/>
<line fill="none" stroke="#FFFFFF" stroke-width="0.75" stroke-linecap="round" stroke-linejoin="round" stroke-miterlimit="10" x1="159.135" y1="159.975" x2="164.535" y2="165.135"/>
<line fill="none" stroke="#FFFFFF" stroke-width="0.75" stroke-linecap="round" stroke-linejoin="round" stroke-miterlimit="10" x1="169.815" y1="170.175" x2="174.615" y2="174.735"/>
<polyline fill="none" stroke="#FFFFFF" stroke-width="0.75" stroke-linecap="round" stroke-linejoin="round" stroke-miterlimit="10" points="
	187.455,266.895 47.655,432.615 83.175,432.615 194.535,266.895 "/>
<polyline fill="none" stroke="#FFFFFF" stroke-width="0.75" stroke-linecap="round" stroke-linejoin="round" stroke-miterlimit="10" points="
	83.175,432.615 118.815,432.615 201.615,266.895 "/>
<polyline fill="none" stroke="#FFFFFF" stroke-width="0.75" stroke-linecap="round" stroke-linejoin="round" stroke-miterlimit="10" points="
	118.815,432.615 154.335,432.615 208.815,266.895 "/>
<polyline fill="none" stroke="#FFFFFF" stroke-width="0.75" stroke-linecap="round" stroke-linejoin="round" stroke-miterlimit="10" points="
	154.335,432.615 189.855,432.615 215.895,266.895 "/>
<polyline fill="none" stroke="#FFFFFF" stroke-width="0.75" stroke-linecap="round" stroke-linejoin="round" stroke-miterlimit="10" points="
	222.975,266.895 225.375,432.615 260.895,432.615 230.055,266.895 "/>
<polyline fill="none" stroke="#FFFFFF" stroke-width="0.75" stroke-linecap="round" stroke-linejoin="round" stroke-miterlimit="10" points="
	260.895,432.615 296.415,432.615 237.135,266.895 "/>
<polyline fill="none" stroke="#FFFFFF" stroke-width="0.75" stroke-linecap="round" stroke-linejoin="round" stroke-miterlimit="10" points="
	296.415,432.615 331.935,432.615 244.335,266.895 "/>
<polyline fill="none" stroke="#FFFFFF" stroke-width="0.75" stroke-linecap="round" stroke-linejoin="round" stroke-miterlimit="10" points="
	331.935,432.615 367.455,432.615 251.415,266.895 "/>
<polyline fill="none" stroke="#FFFFFF" stroke-width="0.75" stroke-linecap="round" stroke-linejoin="round" stroke-miterlimit="10" points="
	367.455,432.615 402.975,432.615 258.495,266.895 "/>
<g>
	<path fill="#FFFFFF" stroke="#FFFFFF" stroke-miterlimit="10" d="M60.02,255.704H39.137v-1.132v-1.259h44.03v1.259v1.258
		l0.126-0.126H62.662v88.94h-1.384H60.02V255.704z"/>
	<path fill="#FFFFFF" stroke="#FFFFFF" stroke-miterlimit="10" d="M123.422,305.143c-0.924,0.169-1.867,0.273-2.831,0.314
		c-0.965,0.043-1.993,0.063-3.082,0.063h-11.825v39.124H104.3h-1.258v-89.947v-1.509h1.509h12.958c4.529,0,8.322,0.713,11.385,2.138
		c3.061,1.428,5.429,3.44,7.108,6.039c1.592,2.516,2.831,5.347,3.711,8.491c0.881,3.146,1.321,6.312,1.321,9.498
		c0,3.271-0.44,6.479-1.321,9.624c-0.88,3.145-2.119,5.934-3.711,8.365c-1.175,1.846-2.559,3.396-4.151,4.654
		c-1.594,1.259-3.607,2.139-6.039,2.643L123.422,305.143z M133.738,295.942c1.425-2.271,2.558-4.857,3.397-7.759
		c0.837-2.9,1.258-5.865,1.258-8.892c0-2.943-0.42-5.866-1.258-8.768c-0.839-2.9-1.972-5.485-3.397-7.758
		c-1.427-2.186-3.481-3.888-6.164-5.106c-2.685-1.219-6.038-1.83-10.064-1.83h-11.825v47.049h11.825
		c4.863,0,8.429-0.609,10.693-1.828C130.467,299.832,132.311,298.128,133.738,295.942z M125.813,304.641l17.486,39.878h-2.768
		l-17.235-39.375L125.813,304.641z"/>
	<path fill="#FFFFFF" stroke="#FFFFFF" stroke-miterlimit="10" d="M197.644,344.644h-2.768l-5.661-27.55h-21.89l-5.913,27.55h-2.768
		l18.493-91.456h2.139L197.644,344.644z M188.461,314.452l-10.19-54.345l-10.567,54.345H188.461z M177.768,253.188h0.126h0.251
		h0.126h0.126h0.251H177.768z"/>
	<path fill="#FFFFFF" stroke="#FFFFFF" stroke-miterlimit="10" d="M252.743,253.188v1.384v1.006h-33.211v47.427h26.041v1.321v1.32
		l-25.915-0.126l-0.126,39.124h-1.384h-1.258v-90.072v-1.384L252.743,253.188L252.743,253.188z"/>
	<path fill="#FFFFFF" stroke="#FFFFFF" stroke-miterlimit="10" d="M311.743,253.188v1.384v1.006h-33.211v47.427h26.04v1.321v1.32
		l-25.915-0.126l-0.125,39.124h-1.384h-1.259v-90.072v-1.384L311.743,253.188L311.743,253.188z"/>
	<path fill="#FFFFFF" stroke="#FFFFFF" stroke-miterlimit="10" d="M335.644,344.644v-91.456h1.32h1.321v91.456h-1.321H335.644z"/>
	<path fill="#FFFFFF" stroke="#FFFFFF" stroke-miterlimit="10" d="M401.562,323.762c0,0.085,0,0.735,0,1.95
		c0,1.217-0.147,2.704-0.44,4.466c-0.295,1.761-0.798,3.606-1.51,5.535c-0.714,1.93-1.783,3.648-3.208,5.158
		c-3.271,3.439-7.8,5.157-13.586,5.157c-5.787,0-10.19-1.718-13.209-5.157c-1.51-1.593-2.622-3.313-3.334-5.158
		c-0.714-1.844-1.195-3.585-1.447-5.221c-0.251-1.636-0.357-3.039-0.314-4.215c0.042-1.173,0.063-1.887,0.063-2.138v-51.704
		c0-6.709,2.013-11.951,6.038-15.726c1.593-1.425,3.46-2.557,5.599-3.396c2.139-0.837,4.34-1.258,6.604-1.258
		c4.528,0,8.637,1.51,12.328,4.529c2.096,1.761,3.711,4.173,4.843,7.233c1.133,3.063,1.698,6.396,1.698,10.001h-2.768
		c0-3.271-0.483-6.121-1.446-8.555c-0.965-2.432-2.223-4.423-3.774-5.976c-1.553-1.551-3.292-2.704-5.221-3.459
		c-1.93-0.755-3.816-1.133-5.66-1.133c-1.931,0-3.837,0.358-5.725,1.069c-1.887,0.714-3.565,1.783-5.031,3.208
		c-1.469,1.427-2.643,3.271-3.522,5.535c-0.881,2.265-1.321,4.906-1.321,7.926v51.829v0.126c0,2.098,0.104,3.88,0.314,5.347
		c0.208,1.469,0.629,3.041,1.258,4.718c0.629,1.679,1.573,3.188,2.831,4.528c2.683,2.937,6.415,4.403,11.196,4.403
		c4.947,0,8.806-1.467,11.573-4.403c1.258-1.341,2.201-2.871,2.83-4.592c0.629-1.718,1.069-3.375,1.321-4.969
		c0.252-1.592,0.377-3.479,0.377-5.661h2.643V323.762z"/>
</g>
<g>
	<path fill="#FFFFFF" stroke="#FFFFFF" stroke-miterlimit="10" d="M58.17,113.615H37.288v-1.132v-1.258h44.03v1.258v1.258
		l0.126-0.125H60.813v88.94h-1.384H58.17V113.615z"/>
</g>
<g>
	<path fill="#FFFFFF" stroke="#FFFFFF" stroke-miterlimit="10" d="M181.144,202.554h-2.768l-5.661-27.55h-21.889l-5.913,27.55
		h-2.768l18.493-91.457h2.139L181.144,202.554z M171.96,172.362l-10.19-54.346l-10.567,54.346H171.96z M161.268,111.098h0.126h0.251
		h0.125h0.126h0.251H161.268z"/>
</g>
<g>
	<path fill="#FFFFFF" stroke="#FFFFFF" stroke-miterlimit="10" d="M248.587,117.765v84.789h-1.258h-1.384v-90.199v-0.125v-1.132
		h2.139l23.272,45.54l23.273-45.54h2.013v1.132v0.125v90.199h-1.321h-1.32v-84.915l-21.764,43.401h-1.761L248.587,117.765z
		 M247.707,111.098h-0.126h-0.125h-0.126h-0.126h-0.126h-0.126h-0.125H247.707z M294.881,111.098h0.126h0.126h0.126h0.126h0.126
		h0.125h0.126H294.881z"/>
</g>
<g>
	<path fill="#FFFFFF" stroke="#FFFFFF" stroke-miterlimit="10" d="M400.111,200.165v1.132v1.258h-35.476v-1.258v-88.815v-1.384
		h34.972v1.384v1.006h-32.33v47.553h25.286v1.258v1.132h-25.286v36.733h32.834V200.165z"/>
</g>
<line fill="none" stroke="#FFFFFF" stroke-width="3" stroke-miterlimit="10" x1="15.228" y1="227.36" x2="429.628" y2="227.36"/>
</svg>
